{
  "uuid": "bd7929ec-01cc-4440-8deb-90adb9329ceb-tc-0-1000",
  "name": "AutoTest.TestCases.AddOneItemTest",
  "children": [
    "ac23cc1a-9cf6-4fcb-8b23-6a83a12a91b6-tr-0-1002"
  ],
  "befores": [
    {
      "name": "Setup",
      "status": "passed",
      "statusDetails": {
        "known": false,
        "muted": false,
        "flaky": false
      },
      "stage": "finished",
      "steps": [],
      "attachments": [],
      "parameters": [],
      "start": 1607194944197,
      "stop": 1607194944197
    }
  ],
  "afters": [
    {
      "name": "TearDown",
      "status": "passed",
      "statusDetails": {
        "known": false,
        "muted": false,
        "flaky": false
      },
      "stage": "finished",
      "steps": [],
      "attachments": [],
      "parameters": [],
      "start": 1607194944198,
      "stop": 1607194944198
    }
  ],
  "links": [],
  "start": 1607194930390,
  "stop": 1607194944366
}